[
    {
      "id": 1,
      "name": "Kevin",
      "password": 12345678
    },
    {
      "id": 2,
      "name": "Adrian",
      "password": 12345678
    },
    {
      "id": 3,
      "name": "Mark",
      "password": 12345678
    }
  ]
  